…
# load additionally 98 NDJSON records
docdb_create(src, key = "my_container", "http://httpbin.org/stream/98")
# Note: container 'my_container' already exists
# [1] 98

# load additionally contacts JSON data, from package nodbi
docdb_create(src, key = "my_container", contacts)
# Note: container 'my_container' already exists
# [1] 5

# get all documents, irrespective of schema
dplyr::tibble(docdb_get(src, "my_container"))
# A tibble: 135 × 27
#    `_id`       isActive balance   age eyeColor name  email about registered tags   friends url  
#    <chr>       <lgl>    <chr>   <int> <chr>    <chr> <chr> <chr> <chr>      <list> <list>  <chr>
#  1 5cd678530d… TRUE     $2,412…    20 blue     Kris… kris… Sint… 2017-07-1… <chr>  <df>    NA   
#  2 5cd678531b… FALSE    $3,400…    20 brown    Rae … raec… Nisi… 2018-12-1… <chr>  <df>    NA   
#  3 5cd6785325… TRUE     $1,161…    22 brown    Pace… pace… Eius… 2018-08-1… <chr>  <df>    NA   
#  4 5cd6785335… FALSE    $2,579…    30 brown    Will… will… Null… 2018-02-1… <chr>  <df>    NA   
#  5 5cd67853f8… FALSE    $3,808…    23 green    Lacy… lacy… Sunt… 2014-08-0… <chr>  <df>    NA   
#  6 6529d28a-c… NA       NA         NA NA       NA    NA    NA    NA         <NULL> <NULL>  http…
#  7 6529d2a8-c… NA       NA         NA NA       NA    NA    NA    NA         <NULL> <NULL>  http…
#  8 6529d2b2-c… NA       NA         NA NA       NA    NA    NA    NA         <NULL> <NULL>  http…
#  9 6529d2c6-c… NA       NA         NA NA       NA    NA    NA    NA         <NULL> <NULL>  http…
# 10 6529d2d0-c… NA       NA         NA NA       NA    NA    NA    NA         <NULL> <NULL>  http…
# # … with 125 more rows, and 15 more variables: args <named list>, headers <df[,4]>,
# #   origin <chr>, id <int>, mpg <dbl>, cyl <dbl>, disp <dbl>, hp <dbl>, drat <dbl>, wt <dbl>,
# #   qsec <dbl>, vs <dbl>, am <dbl>, gear <dbl>, carb <dbl>
…
