…
# load additionally 98 NDJSON records
docdb_create(src, key, "https://httpbin.org/stream/98")
# Note: container 'my_container' already exists
# [1] 98

# load additionally contacts JSON data, from package nodbi
docdb_create(src, key, contacts)
# Note: container 'my_container' already exists
# [1] 5

# get all documents, irrespective of schema
dplyr::tibble(docdb_get(src, key))
# # A tibble: 135 × 27
#    `_id`      url   args  headers$Host origin    id isActive balance   age eyeColor name  email
#    <chr>      <chr> <df[> <chr>        <chr>  <int> <lgl>    <chr>   <int> <chr>    <chr> <chr>
#  1 006c91d9-… http…       httpbin.org  83.13…    87 NA       NA         NA NA       NA    NA   
#  2 00bfd508-… http…       httpbin.org  83.13…    17 NA       NA         NA NA       NA    NA   
#  3 04f17695-… http…       httpbin.org  83.13…    53 NA       NA         NA NA       NA    NA   
#  4 05d0f2be-… http…       httpbin.org  83.13…    80 NA       NA         NA NA       NA    NA   
#  5 06b6b86d-… http…       httpbin.org  83.13…    55 NA       NA         NA NA       NA    NA   
#  6 0760c273-… http…       httpbin.org  83.13…    11 NA       NA         NA NA       NA    NA   
#  7 08de6593-… http…       httpbin.org  83.13…    47 NA       NA         NA NA       NA    NA   
#  8 0b1cb164-… http…       httpbin.org  83.13…    63 NA       NA         NA NA       NA    NA   
#  9 0bafc40e-… http…       httpbin.org  83.13…    60 NA       NA         NA NA       NA    NA   
# 10 11ba908b-… http…       httpbin.org  83.13…    74 NA       NA         NA NA       NA    NA   
# # ℹ 125 more rows
# # ℹ 18 more variables: headers$`X-Amzn-Trace-Id` <chr>, $`User-Agent` <chr>, $Accept <chr>,
# #   about <chr>, registered <chr>, tags <list>, friends <list>, mpg <dbl>, cyl <int>,
# #   disp <dbl>, hp <int>, drat <dbl>, wt <dbl>, qsec <dbl>, vs <int>, am <int>, gear <int>,
# #   carb <int>
…
